<?xml version="1.0" encoding="UTF-8" standalone="no"?>
<svg
   xmlns:dc="http://purl.org/dc/elements/1.1/"
   xmlns:cc="http://creativecommons.org/ns#"
   xmlns:rdf="http://www.w3.org/1999/02/22-rdf-syntax-ns#"
   xmlns:svg="http://www.w3.org/2000/svg"
   xmlns="http://www.w3.org/2000/svg"
   xmlns:xlink="http://www.w3.org/1999/xlink"
   xmlns:sodipodi="http://sodipodi.sourceforge.net/DTD/sodipodi-0.dtd"
   xmlns:inkscape="http://www.inkscape.org/namespaces/inkscape"
   width="512"
   height="512"
   viewBox="0 0 512 512"
   version="1.1"
   id="svg8"
   sodipodi:docname="499-social-logo.svg"
   inkscape:version="1.0.1 (0767f8302a, 2020-10-17)"
   inkscape:export-filename="/home/tad/Projects/499.social/assets/499-social-icon.png"
   inkscape:export-xdpi="6.0000005"
   inkscape:export-ydpi="6.0000005">
  <defs
     id="defs2">
    <linearGradient
       inkscape:collect="always"
       id="linearGradient24">
      <stop
         style="stop-color:#008000;stop-opacity:1;"
         offset="0"
         id="stop20" />
      <stop
         style="stop-color:#000080;stop-opacity:1"
         offset="1"
         id="stop22" />
    </linearGradient>
    <linearGradient
       inkscape:collect="always"
       xlink:href="#linearGradient24"
       id="linearGradient26"
       x1="2"
       y1="23"
       x2="46"
       y2="23"
       gradientUnits="userSpaceOnUse" />
    <linearGradient
       inkscape:collect="always"
       xlink:href="#linearGradient24"
       id="linearGradient76"
       gradientUnits="userSpaceOnUse"
       x1="2"
       y1="23"
       x2="46"
       y2="23" />
    <linearGradient
       inkscape:collect="always"
       xlink:href="#linearGradient24"
       id="linearGradient302"
       gradientUnits="userSpaceOnUse"
       x1="2"
       y1="23"
       x2="46"
       y2="23" />
    <linearGradient
       inkscape:collect="always"
       xlink:href="#linearGradient24"
       id="linearGradient306"
       gradientUnits="userSpaceOnUse"
       x1="2"
       y1="23"
       x2="46"
       y2="23" />
    <filter
       style="color-interpolation-filters:sRGB"
       inkscape:label="Drop Shadow"
       id="filter1150">
      <feFlood
         flood-opacity="0.498039"
         flood-color="rgb(0,0,0)"
         result="flood"
         id="feFlood1140" />
      <feComposite
         in="flood"
         in2="SourceGraphic"
         operator="in"
         result="composite1"
         id="feComposite1142" />
      <feGaussianBlur
         in="composite1"
         stdDeviation="3"
         result="blur"
         id="feGaussianBlur1144" />
      <feOffset
         dx="6"
         dy="6"
         result="offset"
         id="feOffset1146" />
      <feComposite
         in="SourceGraphic"
         in2="offset"
         operator="over"
         result="fbSourceGraphic"
         id="feComposite1148" />
      <feColorMatrix
         result="fbSourceGraphicAlpha"
         in="fbSourceGraphic"
         values="0 0 0 -1 0 0 0 0 -1 0 0 0 0 -1 0 0 0 0 1 0"
         id="feColorMatrix1152" />
      <feFlood
         id="feFlood1154"
         flood-opacity="0.498039"
         flood-color="rgb(0,0,0)"
         result="flood"
         in="fbSourceGraphic" />
      <feComposite
         in2="fbSourceGraphic"
         id="feComposite1156"
         in="flood"
         operator="in"
         result="composite1" />
      <feGaussianBlur
         id="feGaussianBlur1158"
         in="composite1"
         stdDeviation="1"
         result="blur" />
      <feOffset
         id="feOffset1160"
         dx="1"
         dy="1"
         result="offset" />
      <feComposite
         in2="offset"
         id="feComposite1162"
         in="fbSourceGraphic"
         operator="over"
         result="fbSourceGraphic" />
      <feColorMatrix
         result="fbSourceGraphicAlpha"
         in="fbSourceGraphic"
         values="0 0 0 -1 0 0 0 0 -1 0 0 0 0 -1 0 0 0 0 1 0"
         id="feColorMatrix1176" />
      <feFlood
         id="feFlood1178"
         flood-opacity="0.498039"
         flood-color="rgb(0,0,0)"
         result="flood"
         in="fbSourceGraphic" />
      <feComposite
         in2="fbSourceGraphic"
         id="feComposite1180"
         in="flood"
         operator="in"
         result="composite1" />
      <feGaussianBlur
         id="feGaussianBlur1182"
         in="composite1"
         stdDeviation="0.1"
         result="blur" />
      <feOffset
         id="feOffset1184"
         dx="0.1"
         dy="0.1"
         result="offset" />
      <feComposite
         in2="offset"
         id="feComposite1186"
         in="fbSourceGraphic"
         operator="over"
         result="fbSourceGraphic" />
      <feColorMatrix
         result="fbSourceGraphicAlpha"
         in="fbSourceGraphic"
         values="0 0 0 -1 0 0 0 0 -1 0 0 0 0 -1 0 0 0 0 1 0"
         id="feColorMatrix1188" />
      <feFlood
         id="feFlood1190"
         flood-opacity="0.498039"
         flood-color="rgb(0,0,0)"
         result="flood"
         in="fbSourceGraphic" />
      <feComposite
         in2="fbSourceGraphic"
         id="feComposite1192"
         in="flood"
         operator="in"
         result="composite1" />
      <feGaussianBlur
         id="feGaussianBlur1194"
         in="composite1"
         stdDeviation="0.1"
         result="blur" />
      <feOffset
         id="feOffset1196"
         dx="0.1"
         dy="0.1"
         result="offset" />
      <feComposite
         in2="offset"
         id="feComposite1198"
         in="fbSourceGraphic"
         operator="over"
         result="fbSourceGraphic" />
      <feColorMatrix
         result="fbSourceGraphicAlpha"
         in="fbSourceGraphic"
         values="0 0 0 -1 0 0 0 0 -1 0 0 0 0 -1 0 0 0 0 1 0"
         id="feColorMatrix1200" />
      <feFlood
         id="feFlood1202"
         flood-opacity="0.498039"
         flood-color="rgb(0,0,0)"
         result="flood"
         in="fbSourceGraphic" />
      <feComposite
         in2="fbSourceGraphic"
         id="feComposite1204"
         in="flood"
         operator="in"
         result="composite1" />
      <feGaussianBlur
         id="feGaussianBlur1206"
         in="composite1"
         stdDeviation="0.1"
         result="blur" />
      <feOffset
         id="feOffset1208"
         dx="0.1"
         dy="0.1"
         result="offset" />
      <feComposite
         in2="offset"
         id="feComposite1210"
         in="fbSourceGraphic"
         operator="over"
         result="composite2" />
    </filter>
    <filter
       style="color-interpolation-filters:sRGB"
       inkscape:label="Drop Shadow"
       id="filter1246">
      <feFlood
         flood-opacity="0.698039"
         flood-color="rgb(0,0,0)"
         result="flood"
         id="feFlood1236" />
      <feComposite
         in="flood"
         in2="SourceGraphic"
         operator="in"
         result="composite1"
         id="feComposite1238" />
      <feGaussianBlur
         in="composite1"
         stdDeviation="0.2"
         result="blur"
         id="feGaussianBlur1240" />
      <feOffset
         dx="0.1"
         dy="0.1"
         result="offset"
         id="feOffset1242" />
      <feComposite
         in="SourceGraphic"
         in2="offset"
         operator="over"
         result="composite2"
         id="feComposite1244" />
    </filter>
    <linearGradient
       inkscape:collect="always"
       xlink:href="#linearGradient24"
       id="linearGradient1252"
       gradientUnits="userSpaceOnUse"
       x1="2"
       y1="23"
       x2="46"
       y2="23" />
    <linearGradient
       inkscape:collect="always"
       xlink:href="#linearGradient24"
       id="linearGradient1287"
       gradientUnits="userSpaceOnUse"
       x1="2"
       y1="23"
       x2="46"
       y2="23" />
  </defs>
  <sodipodi:namedview
     id="base"
     pagecolor="#717171"
     bordercolor="#666666"
     borderopacity="1.0"
     inkscape:pageopacity="0"
     inkscape:pageshadow="2"
     inkscape:zoom="1.4"
     inkscape:cx="29.897316"
     inkscape:cy="204.05688"
     inkscape:document-units="px"
     inkscape:current-layer="layer1"
     inkscape:document-rotation="0"
     showgrid="true"
     units="px"
     inkscape:window-width="1920"
     inkscape:window-height="1043"
     inkscape:window-x="0"
     inkscape:window-y="0"
     inkscape:window-maximized="1"
     inkscape:snap-grids="true"
     inkscape:snap-object-midpoints="true"
     showborder="true">
    <inkscape:grid
       type="xygrid"
       id="grid28" />
  </sodipodi:namedview>
  <metadata
     id="metadata5">
    <rdf:RDF>
      <cc:Work
         rdf:about="">
        <dc:format>image/svg+xml</dc:format>
        <dc:type
           rdf:resource="http://purl.org/dc/dcmitype/StillImage" />
        <dc:title></dc:title>
      </cc:Work>
    </rdf:RDF>
  </metadata>
  <g
     inkscape:label="Main"
     inkscape:groupmode="layer"
     id="layer1"
     style="display:inline">
    <text
       xml:space="preserve"
       style="font-style:normal;font-variant:normal;font-weight:900;font-stretch:normal;font-size:96.5179px;line-height:1.25;font-family:Lato;-inkscape-font-specification:'Lato, Heavy';font-variant-ligatures:normal;font-variant-caps:normal;font-variant-numeric:normal;font-variant-east-asian:normal;fill:#ffffff;fill-opacity:1;stroke:none;stroke-width:2.41296"
       x="122.12228"
       y="422.31656"
       id="text16"><tspan
         sodipodi:role="line"
         id="tspan14"
         x="122.12228"
         y="422.31656"
         style="font-style:normal;font-variant:normal;font-weight:900;font-stretch:normal;font-size:96.5179px;font-family:Lato;-inkscape-font-specification:'Lato, Heavy';font-variant-ligatures:normal;font-variant-caps:normal;font-variant-numeric:normal;font-variant-east-asian:normal;fill:#ffffff;stroke-width:2.41296">.social</tspan></text>
    <g
       aria-label="499 "
       id="text222-4"
       style="font-style:normal;font-variant:normal;font-weight:900;font-stretch:normal;font-size:23.3093px;line-height:1.25;font-family:Lato;-inkscape-font-specification:'Lato, Heavy';font-variant-ligatures:normal;font-variant-caps:normal;font-variant-numeric:normal;font-variant-east-asian:normal;display:inline;fill:#ffffff;fill-opacity:1;stroke:none;stroke-width:0.582735"
       transform="matrix(10.305234,0,0,10.305234,8.6743835,8.6755722)">
      <path
         d="m 15.47859,23.987136 h 1.748198 v 2.027909 q 0,0.268057 -0.186474,0.466186 -0.17482,0.198129 -0.512805,0.198129 H 15.47859 v 3.904308 H 12.331835 V 26.67936 H 5.5022103 q -0.3379848,0 -0.6176964,-0.209784 Q 4.6164569,26.259793 4.546529,25.945117 L 4.1735802,24.161956 12.028814,13.602843 h 3.449776 z m -3.146755,-4.428767 q 0,-0.407913 0.02331,-0.874099 0.03496,-0.47784 0.09324,-0.97899 l -4.4870406,6.281856 h 4.3704936 z"
         style="font-style:normal;font-variant:normal;font-weight:900;font-stretch:normal;font-size:23.3093px;font-family:Lato;-inkscape-font-specification:'Lato, Heavy';font-variant-ligatures:normal;font-variant-caps:normal;font-variant-numeric:normal;font-variant-east-asian:normal;fill:#ffffff;stroke-width:0.582735"
         id="path1280" />
      <path
         d="m 24.990605,24.150301 q 0.163166,-0.198129 0.303021,-0.372949 0.151511,-0.186474 0.291367,-0.372948 -0.52446,0.279711 -1.142156,0.419567 -0.617697,0.139856 -1.293666,0.139856 -0.82748,0 -1.65496,-0.291367 -0.827481,-0.30302 -1.50345,-0.909062 -0.664315,-0.606042 -1.083883,-1.526759 -0.419567,-0.920718 -0.419567,-2.17942 0,-1.15381 0.419567,-2.179419 0.431222,-1.02561 1.212084,-1.794816 0.792516,-0.769207 1.888053,-1.212084 1.095537,-0.454531 2.447477,-0.454531 1.375248,0 2.459131,0.419567 1.083882,0.419567 1.82978,1.17712 0.757552,0.757552 1.15381,1.80647 0.407913,1.037264 0.407913,2.295966 0,1.666615 -0.50115,2.983591 -0.50115,1.316975 -1.340285,2.48244 l -3.65956,5.197974 q -0.244748,0.337985 -0.745898,0.571078 -0.489495,0.233093 -1.118846,0.233093 h -3.33323 z m 1.864744,-5.361139 q 0,-0.617696 -0.186474,-1.083882 -0.17482,-0.477841 -0.50115,-0.792516 -0.314675,-0.314676 -0.769207,-0.477841 -0.454531,-0.163165 -0.990645,-0.163165 -0.547769,0 -0.978991,0.198129 -0.419567,0.186474 -0.722588,0.524459 -0.291366,0.337985 -0.454531,0.804171 -0.151511,0.454531 -0.151511,0.990645 0,2.540714 2.35424,2.540714 1.15381,0 1.771506,-0.687624 0.629351,-0.699279 0.629351,-1.85309 z"
         style="font-style:normal;font-variant:normal;font-weight:900;font-stretch:normal;font-size:23.3093px;font-family:Lato;-inkscape-font-specification:'Lato, Heavy';font-variant-ligatures:normal;font-variant-caps:normal;font-variant-numeric:normal;font-variant-east-asian:normal;fill:#ffffff;stroke-width:0.582735"
         id="path1282" />
      <path
         d="m 38.51182,24.150301 q 0.163165,-0.198129 0.303021,-0.372949 0.15151,-0.186474 0.291366,-0.372948 -0.524459,0.279711 -1.142156,0.419567 -0.617696,0.139856 -1.293666,0.139856 -0.82748,0 -1.65496,-0.291367 -0.82748,-0.30302 -1.50345,-0.909062 -0.664315,-0.606042 -1.083882,-1.526759 -0.419568,-0.920718 -0.419568,-2.17942 0,-1.15381 0.419568,-2.179419 0.431222,-1.02561 1.212083,-1.794816 0.792517,-0.769207 1.888054,-1.212084 1.095537,-0.454531 2.447476,-0.454531 1.375249,0 2.459131,0.419567 1.083883,0.419567 1.82978,1.17712 0.757552,0.757552 1.15381,1.80647 0.407913,1.037264 0.407913,2.295966 0,1.666615 -0.50115,2.983591 -0.50115,1.316975 -1.340284,2.48244 l -3.65956,5.197974 q -0.244748,0.337985 -0.745898,0.571078 -0.489495,0.233093 -1.118846,0.233093 h -3.33323 z m 1.864744,-5.361139 q 0,-0.617696 -0.186474,-1.083882 -0.17482,-0.477841 -0.50115,-0.792516 -0.314676,-0.314676 -0.769207,-0.477841 -0.454532,-0.163165 -0.990646,-0.163165 -0.547768,0 -0.97899,0.198129 -0.419568,0.186474 -0.722588,0.524459 -0.291367,0.337985 -0.454532,0.804171 -0.15151,0.454531 -0.15151,0.990645 0,2.540714 2.354239,2.540714 1.15381,0 1.771507,-0.687624 0.629351,-0.699279 0.629351,-1.85309 z"
         style="font-style:normal;font-variant:normal;font-weight:900;font-stretch:normal;font-size:23.3093px;font-family:Lato;-inkscape-font-specification:'Lato, Heavy';font-variant-ligatures:normal;font-variant-caps:normal;font-variant-numeric:normal;font-variant-east-asian:normal;fill:#ffffff;stroke-width:0.582735"
         id="path1284" />
    </g>
    <path
       id="circle66"
       style="fill:url(#linearGradient1252);fill-opacity:1;fill-rule:evenodd;stroke-width:0.273733;filter:url(#filter1246)"
       d="M 23.789062,0 A 24,24 0 0 0 0,24 24,24 0 0 0 24,48 24,24 0 0 0 48,24 24,24 0 0 0 24,0 24,24 0 0 0 23.789062,0 Z m 0.666016,13.416016 c 0.916832,0 1.736396,0.14021 2.458984,0.419922 0.722589,0.279707 1.332813,0.672699 1.830079,1.177734 0.505034,0.505035 0.888171,1.107363 1.152343,1.80664 0.271942,0.691511 0.408203,1.455788 0.408204,2.294922 0,1.111077 -0.165902,2.106391 -0.5,2.984375 -0.3341,0.877984 -0.782374,1.705446 -1.341797,2.482422 l -3.658203,5.197266 c -0.163168,0.225323 -0.411994,0.414917 -0.746094,0.570312 -0.32633,0.155396 -0.699574,0.234375 -1.119141,0.234375 h -3.333984 l 5.384765,-6.433593 c 0.108778,-0.132086 0.209498,-0.256501 0.302735,-0.373047 0.101007,-0.124316 0.199729,-0.248731 0.292969,-0.373047 -0.349641,0.186474 -0.730781,0.326684 -1.142579,0.419922 -0.411798,0.09324 -0.844276,0.138672 -1.294921,0.138672 -0.551654,0 -1.102644,-0.09677 -1.654297,-0.291016 -0.551654,-0.202013 -1.053261,-0.504175 -1.503907,-0.908203 -0.442876,-0.404028 -0.804272,-0.913533 -1.083984,-1.527344 -0.279711,-0.613812 -0.417969,-1.340553 -0.417969,-2.179687 0,-0.769207 0.138258,-1.495949 0.417969,-2.179688 0.287481,-0.68374 0.692316,-1.282118 1.212891,-1.794922 0.528344,-0.512804 1.158314,-0.915686 1.888671,-1.210937 0.730358,-0.303021 1.545973,-0.455078 2.447266,-0.455078 z m 13.521484,0 c 0.916833,0 1.736397,0.14021 2.458985,0.419922 0.722589,0.279707 1.33086,0.672699 1.828125,1.177734 0.505035,0.505035 0.890125,1.107363 1.154297,1.80664 0.271942,0.691511 0.408203,1.455788 0.408203,2.294922 0,1.111077 -0.167853,2.106391 -0.501953,2.984375 -0.3341,0.877984 -0.780421,1.705446 -1.339844,2.482422 l -3.658203,5.197266 c -0.163165,0.225323 -0.411994,0.414917 -0.746094,0.570312 -0.32633,0.155396 -0.699573,0.234375 -1.11914,0.234375 h -3.333985 l 5.384766,-6.433593 c 0.108776,-0.132086 0.209497,-0.256501 0.302734,-0.373047 0.101007,-0.124316 0.197778,-0.248731 0.291016,-0.373047 -0.34964,0.186474 -0.728827,0.326684 -1.140625,0.419922 -0.411798,0.09324 -0.844275,0.138672 -1.294922,0.138672 -0.551653,0 -1.102644,-0.09677 -1.654297,-0.291016 -0.551653,-0.202013 -1.05326,-0.504175 -1.503906,-0.908203 -0.442877,-0.404028 -0.804273,-0.913533 -1.083985,-1.527344 -0.279712,-0.613812 -0.419922,-1.340553 -0.419922,-2.179687 0,-0.769207 0.14021,-1.495949 0.419922,-2.179688 0.287482,-0.68374 0.692317,-1.282118 1.212891,-1.794922 0.528345,-0.512804 1.156361,-0.915686 1.886719,-1.210937 0.730358,-0.303021 1.547927,-0.455078 2.449218,-0.455078 z m -25.947265,0.1875 h 3.449219 v 10.382812 h 1.748046 v 2.029297 c 0,0.178705 -0.06123,0.332758 -0.185546,0.464844 -0.116547,0.132086 -0.288349,0.199219 -0.513672,0.199219 h -1.048828 v 3.904296 H 12.332031 V 26.679688 H 5.501953 c -0.225323,0 -0.430713,-0.07108 -0.617187,-0.210938 C 4.706061,26.328895 4.593494,26.155097 4.546875,25.945312 L 4.173828,24.162109 Z m 12.378906,2.667968 c -0.365179,0 -0.691035,0.06713 -0.978515,0.199219 -0.279712,0.124316 -0.520643,0.298114 -0.722657,0.523438 -0.194244,0.225323 -0.346301,0.493896 -0.455078,0.804687 -0.101007,0.303021 -0.152344,0.632825 -0.152344,0.990234 0,1.69381 0.785976,2.541016 2.355469,2.541016 0.769207,0 1.35969,-0.229084 1.771484,-0.6875 0.419569,-0.466186 0.628907,-1.084308 0.628907,-1.853516 0,-0.411795 -0.06318,-0.773193 -0.1875,-1.083984 -0.116547,-0.318561 -0.282447,-0.583185 -0.5,-0.792969 -0.209784,-0.209784 -0.46651,-0.367785 -0.769531,-0.476562 -0.303022,-0.108777 -0.632826,-0.164063 -0.990235,-0.164063 z m 13.521485,0 c -0.365179,0 -0.692988,0.06713 -0.980469,0.199219 -0.279712,0.124316 -0.520643,0.298114 -0.722657,0.523438 -0.194243,0.225323 -0.344349,0.493896 -0.453124,0.804687 -0.101009,0.303021 -0.152344,0.632825 -0.152344,0.990234 0,1.69381 0.785976,2.541016 2.355468,2.541016 0.769208,0 1.359687,-0.229084 1.771485,-0.6875 0.419567,-0.466186 0.628906,-1.084308 0.628906,-1.853516 0,-0.411796 -0.06318,-0.773193 -0.1875,-1.083984 -0.116547,-0.318561 -0.282447,-0.583185 -0.5,-0.792969 -0.209784,-0.209784 -0.46651,-0.367785 -0.769531,-0.476562 -0.303021,-0.108777 -0.632825,-0.164063 -0.990234,-0.164063 z m -25.480469,1.433594 -4.488282,6.28125 h 4.371094 v -4.427734 c 0,-0.271942 0.0079,-0.56421 0.02344,-0.875 0.02331,-0.31856 0.0549,-0.644416 0.09375,-0.978516 z m 16.185547,15.394531 c 0.121756,0 0.23565,0.0227 0.341796,0.06641 0.109269,0.04371 0.205939,0.105543 0.28711,0.183593 0.08117,0.07805 0.144577,0.16846 0.191406,0.271485 0.04683,0.103025 0.07031,0.213396 0.07031,0.332031 0,0.115513 -0.02349,0.2251 -0.07031,0.328125 -0.04683,0.0999 -0.110232,0.187576 -0.191406,0.265625 -0.08117,0.07493 -0.17784,0.136764 -0.28711,0.183594 -0.106146,0.04371 -0.22004,0.06445 -0.341796,0.06445 -0.118636,0 -0.229007,-0.02075 -0.332032,-0.06445 -0.103024,-0.04683 -0.194219,-0.108667 -0.27539,-0.183597 -0.07805,-0.07805 -0.140671,-0.165722 -0.1875,-0.265625 -0.04371,-0.103025 -0.06641,-0.212612 -0.06641,-0.328125 -1e-6,-0.118635 0.0227,-0.229006 0.06641,-0.332031 0.04683,-0.103025 0.109448,-0.193435 0.1875,-0.271485 0.08117,-0.07805 0.172366,-0.139886 0.27539,-0.183593 0.103025,-0.04371 0.213396,-0.06641 0.332032,-0.06641 z m 6.609375,0.0293 h 1.451171 v 7.009766 h -1.451171 z m -2.828125,2.060547 c 0.293464,0 0.556867,0.04775 0.791015,0.144531 0.23727,0.09366 0.437268,0.226729 0.59961,0.398438 0.165464,0.168586 0.291491,0.369368 0.378906,0.603516 0.08742,0.234147 0.130859,0.489722 0.130859,0.767578 v 3.035156 h -0.664062 c -0.137367,0 -0.242648,-0.01917 -0.314453,-0.05664 -0.06868,-0.03747 -0.126999,-0.115743 -0.173829,-0.234375 l -0.103515,-0.265625 c -0.121757,0.103025 -0.23722,0.193435 -0.349609,0.271485 -0.112391,0.07805 -0.229806,0.144976 -0.351563,0.201172 -0.118635,0.05307 -0.247399,0.09221 -0.384766,0.117187 -0.134244,0.0281 -0.283754,0.04102 -0.449218,0.04102 -0.22166,0 -0.422442,-0.02779 -0.603516,-0.08398 -0.181074,-0.05932 -0.336843,-0.145424 -0.464844,-0.257812 -0.124878,-0.112391 -0.220379,-0.250552 -0.289062,-0.416016 -0.06868,-0.168586 -0.103516,-0.36154 -0.103516,-0.580078 0,-0.171708 0.04345,-0.348223 0.130859,-0.529297 0.08742,-0.181074 0.239663,-0.345455 0.455079,-0.492187 0.215416,-0.149855 0.505823,-0.275098 0.871093,-0.375 0.36527,-0.0999 0.82515,-0.155481 1.38086,-0.167969 v -0.207031 c 0,-0.284099 -0.0591,-0.488403 -0.177735,-0.613282 -0.115512,-0.128 -0.280677,-0.191406 -0.496093,-0.191406 -0.171708,0 -0.312607,0.01917 -0.421875,0.05664 -0.10927,0.03747 -0.207508,0.08013 -0.294922,0.126953 -0.08429,0.04683 -0.166876,0.08753 -0.248047,0.125 -0.08117,0.03747 -0.178625,0.05664 -0.291016,0.05664 -0.0999,0 -0.18327,-0.02426 -0.251953,-0.07422 -0.06868,-0.04995 -0.126214,-0.109053 -0.169922,-0.177735 l -0.261719,-0.455078 c 0.293465,-0.259123 0.618706,-0.451293 0.97461,-0.576172 0.359027,-0.128 0.743366,-0.191406 1.152344,-0.191406 z m -16.947266,0.01758 c 0.17483,0 0.343517,0.01566 0.505859,0.04687 0.165465,0.03122 0.321234,0.07466 0.464844,0.13086 0.143611,0.05619 0.273944,0.125073 0.392578,0.203125 0.118635,0.07493 0.223916,0.157508 0.314453,0.248047 l -0.328125,0.509765 c -0.03746,0.05932 -0.07738,0.10198 -0.121093,0.126953 -0.04059,0.02497 -0.0946,0.03711 -0.160157,0.03711 -0.06868,0 -0.136394,-0.01487 -0.205078,-0.04297 -0.06868,-0.03122 -0.143438,-0.06332 -0.224609,-0.09766 -0.07805,-0.03434 -0.167676,-0.06565 -0.267578,-0.09375 -0.0999,-0.03122 -0.213796,-0.04687 -0.341797,-0.04687 -0.184196,0 -0.325879,0.03561 -0.425781,0.107422 -0.09678,0.06868 -0.146485,0.166136 -0.146485,0.291015 0,0.09054 0.03131,0.165292 0.09375,0.224609 0.06556,0.05932 0.151664,0.111377 0.257813,0.158204 0.106146,0.04371 0.227083,0.08637 0.361328,0.126953 0.134245,0.04059 0.271621,0.08677 0.412109,0.136719 0.140489,0.04995 0.277865,0.109053 0.41211,0.177734 0.134244,0.06556 0.253228,0.148142 0.359375,0.248047 0.106147,0.09678 0.191467,0.21498 0.253906,0.355469 0.06556,0.140487 0.09766,0.309176 0.09766,0.505859 0,0.240392 -0.04345,0.463088 -0.130859,0.666015 -0.08742,0.202928 -0.217748,0.376705 -0.392578,0.523438 -0.171708,0.146732 -0.386577,0.260626 -0.642579,0.341797 -0.252879,0.08117 -0.544069,0.121094 -0.875,0.121094 -0.165464,0 -0.330629,-0.0137 -0.496093,-0.04492 -0.165465,-0.03122 -0.326324,-0.07388 -0.482422,-0.126953 -0.152977,-0.05307 -0.296608,-0.115695 -0.427735,-0.1875 -0.131121,-0.07493 -0.242278,-0.153988 -0.335937,-0.238282 l 0.335937,-0.535156 c 0.03747,-0.06244 0.08443,-0.11019 0.140626,-0.144531 0.05932,-0.03747 0.136028,-0.05664 0.226562,-0.05664 0.08429,0 0.159048,0.01917 0.224609,0.05664 0.06868,0.03747 0.140701,0.07739 0.21875,0.121094 0.07805,0.04371 0.168459,0.08558 0.271485,0.123047 0.106146,0.03747 0.239217,0.05469 0.398437,0.05469 0.112392,0 0.207107,-0.0094 0.285157,-0.03125 0.07805,-0.02497 0.14067,-0.05902 0.1875,-0.09961 0.04683,-0.04059 0.08166,-0.08481 0.103515,-0.134766 0.02185,-0.04995 0.0332,-0.101226 0.0332,-0.154297 0,-0.09678 -0.03405,-0.177795 -0.09961,-0.240234 -0.06556,-0.06244 -0.149716,-0.114497 -0.255859,-0.158203 -0.106152,-0.04683 -0.227869,-0.08949 -0.365235,-0.126954 -0.134245,-0.04059 -0.271621,-0.08481 -0.412109,-0.134765 -0.140489,-0.04995 -0.280603,-0.111006 -0.417969,-0.179688 -0.134245,-0.0718 -0.253228,-0.159478 -0.359375,-0.265625 -0.106147,-0.109269 -0.192254,-0.242339 -0.257812,-0.398437 -0.06556,-0.156099 -0.09961,-0.344747 -0.09961,-0.566406 0,-0.20605 0.03914,-0.401742 0.117188,-0.585938 0.08117,-0.187318 0.202108,-0.351699 0.361328,-0.492187 0.15922,-0.140488 0.359218,-0.25086 0.599609,-0.332032 0.240391,-0.08429 0.520234,-0.126953 0.841797,-0.126952 z m 4.671875,0 c 0.368392,0 0.704982,0.05832 1.007813,0.173828 0.30283,0.115514 0.561927,0.280679 0.777343,0.496094 0.218538,0.215416 0.387225,0.478035 0.50586,0.787109 0.121756,0.305953 0.18164,0.651155 0.18164,1.035157 0,0.387123 -0.05988,0.736631 -0.18164,1.048828 -0.118635,0.309075 -0.287322,0.572479 -0.50586,0.791015 -0.215416,0.215416 -0.474513,0.383319 -0.777343,0.501954 -0.302831,0.115512 -0.639421,0.171875 -1.007813,0.171875 -0.371514,0 -0.709672,-0.05636 -1.015625,-0.171875 -0.302831,-0.118635 -0.56545,-0.286538 -0.787109,-0.501954 -0.218538,-0.218536 -0.388009,-0.48194 -0.509766,-0.791015 -0.118635,-0.312197 -0.177734,-0.661705 -0.177734,-1.048828 0,-0.384002 0.0591,-0.729204 0.177734,-1.035157 0.121757,-0.309074 0.291228,-0.571693 0.509766,-0.787109 0.221659,-0.215415 0.484278,-0.38058 0.787109,-0.496094 0.305953,-0.115512 0.644111,-0.173828 1.015625,-0.173828 z m 5.367187,0 c 0.380881,0 0.716686,0.06184 1.003907,0.183594 0.287221,0.121757 0.546318,0.299055 0.777343,0.533203 l -0.384765,0.511719 c -0.04371,0.05307 -0.08637,0.09378 -0.126953,0.125 -0.04059,0.03122 -0.09695,0.04687 -0.171875,0.04687 -0.0718,0 -0.137949,-0.01644 -0.197266,-0.05078 -0.05619,-0.03434 -0.119599,-0.07269 -0.191406,-0.113282 -0.07181,-0.04371 -0.157125,-0.08284 -0.253906,-0.117187 -0.09678,-0.03434 -0.217718,-0.05078 -0.361329,-0.05078 -0.177952,0 -0.331767,0.0321 -0.46289,0.09766 -0.128001,0.06556 -0.234066,0.159492 -0.31836,0.28125 -0.08429,0.121757 -0.146914,0.271267 -0.1875,0.449219 -0.04059,0.17483 -0.06055,0.374043 -0.06055,0.595703 0,0.465172 0.08963,0.822508 0.267578,1.072265 0.181074,0.249758 0.428822,0.375 0.74414,0.375 0.168587,0 0.301657,-0.01996 0.398438,-0.06055 0.0999,-0.04371 0.18327,-0.09067 0.251953,-0.140626 0.06868,-0.05307 0.131305,-0.102777 0.1875,-0.146484 0.05932,-0.04371 0.13329,-0.06445 0.220703,-0.06445 0.115513,0 0.202402,0.04266 0.261719,0.126953 l 0.421875,0.519531 c -0.149855,0.171708 -0.307192,0.310654 -0.472656,0.419922 -0.165465,0.106148 -0.336889,0.191466 -0.511719,0.253907 -0.171708,0.05932 -0.344701,0.09924 -0.519531,0.121093 -0.17483,0.02497 -0.344301,0.03711 -0.509766,0.03711 -0.296587,0 -0.581904,-0.05558 -0.853516,-0.167969 -0.268488,-0.112396 -0.504887,-0.27404 -0.710937,-0.486333 -0.202928,-0.215416 -0.364572,-0.478819 -0.486328,-0.791016 -0.118635,-0.312197 -0.177735,-0.668748 -0.177735,-1.068359 0,-0.349661 0.05127,-0.675685 0.154297,-0.978516 0.106148,-0.305953 0.259964,-0.569356 0.462891,-0.791015 0.20605,-0.224782 0.458104,-0.401297 0.757812,-0.529297 0.302832,-0.128001 0.65234,-0.19336 1.048828,-0.19336 z m 2.416016,0.07617 H 29.375 v 4.855469 h -1.451172 z m -7.783203,1.001953 c -0.343417,0 -0.594686,0.117415 -0.753906,0.351563 -0.159221,0.234147 -0.238281,0.591482 -0.238281,1.072265 0,0.480783 0.07906,0.838903 0.238281,1.076172 0.15922,0.234148 0.410489,0.351563 0.753906,0.351563 0.33405,0 0.580229,-0.117415 0.736328,-0.351563 0.15922,-0.237269 0.238281,-0.595389 0.238281,-1.076172 0,-0.480783 -0.07906,-0.838118 -0.238281,-1.072265 -0.156099,-0.234151 -0.402278,-0.351566 -0.736328,-0.351566 z m 12.761719,1.876953 c -0.290343,0.01249 -0.529479,0.03871 -0.716797,0.07617 -0.187318,0.03747 -0.336043,0.08443 -0.445313,0.140625 -0.109268,0.05619 -0.184808,0.1196 -0.228515,0.191406 -0.04059,0.07181 -0.06055,0.150082 -0.06055,0.234376 0,0.165464 0.04423,0.282879 0.134766,0.351562 0.09054,0.06556 0.223607,0.09766 0.398437,0.09766 0.187318,0 0.3517,-0.0321 0.492187,-0.09766 0.140488,-0.06556 0.282171,-0.171626 0.425782,-0.318359 z m -20.773438,0.441407 c 0.115513,0 0.222363,0.02075 0.322266,0.06445 0.0999,0.04059 0.186791,0.09812 0.261719,0.169922 0.07493,0.0718 0.133242,0.155171 0.173828,0.251953 0.04371,0.09678 0.06641,0.202062 0.06641,0.314453 0,0.112391 -0.0227,0.218457 -0.06641,0.318359 -0.04059,0.09678 -0.0989,0.180149 -0.173828,0.251953 -0.07493,0.07181 -0.161816,0.129336 -0.261719,0.169922 -0.0999,0.04059 -0.206753,0.06055 -0.322266,0.06055 -0.118634,0 -0.228222,-0.01996 -0.328125,-0.06055 -0.0999,-0.04059 -0.188745,-0.09812 -0.263672,-0.169922 -0.0718,-0.0718 -0.128167,-0.155171 -0.171875,-0.251953 -0.04059,-0.0999 -0.06055,-0.205968 -0.06055,-0.318359 0,-0.112391 0.01996,-0.217673 0.06055,-0.314453 0.04371,-0.09678 0.100069,-0.180149 0.171875,-0.251953 0.07493,-0.07181 0.163769,-0.129336 0.263672,-0.169922 0.0999,-0.04371 0.209491,-0.06445 0.328125,-0.06445 z"
       transform="matrix(10.305234,0,0,10.305234,8.6743835,8.6755722)" />
    <g
       aria-label="499"
       id="text70"
       style="font-style:normal;font-variant:normal;font-weight:900;font-stretch:normal;font-size:23.3093px;line-height:1.25;font-family:Lato;-inkscape-font-specification:'Lato, Heavy';font-variant-ligatures:normal;font-variant-caps:normal;font-variant-numeric:normal;font-variant-east-asian:normal;fill:#ffffff;fill-opacity:1;stroke:none;stroke-width:0.582735"
       transform="matrix(10.305234,0,0,10.305234,8.6743835,8.6755722)" />
  </g>
  <g
     inkscape:groupmode="layer"
     id="layer2"
     inkscape:label="Shapes"
     style="display:none">
    <circle
       style="display:inline;fill:url(#linearGradient1287);fill-opacity:1;fill-rule:evenodd;stroke-width:0.273733"
       id="circle208"
       cx="24"
       cy="24"
       r="24" />
    <text
       xml:space="preserve"
       style="font-style:normal;font-variant:normal;font-weight:900;font-stretch:normal;font-size:23.3093px;line-height:1.25;font-family:Lato;-inkscape-font-specification:'Lato, Heavy';font-variant-ligatures:normal;font-variant-caps:normal;font-variant-numeric:normal;font-variant-east-asian:normal;display:inline;fill:#ffffff;fill-opacity:1;stroke:none;stroke-width:0.582735"
       x="4.2318525"
       y="30.583668"
       id="text212"><tspan
         sodipodi:role="line"
         id="tspan210"
         x="4.2318525"
         y="30.583668"
         style="font-style:normal;font-variant:normal;font-weight:900;font-stretch:normal;font-size:23.3093px;font-family:Lato;-inkscape-font-specification:'Lato, Heavy';font-variant-ligatures:normal;font-variant-caps:normal;font-variant-numeric:normal;font-variant-east-asian:normal;fill:#ffffff;stroke-width:0.582735">499</tspan></text>
    <text
       xml:space="preserve"
       style="font-style:normal;font-variant:normal;font-weight:900;font-stretch:normal;font-size:9.3659px;line-height:1.25;font-family:Lato;-inkscape-font-specification:'Lato, Heavy';font-variant-ligatures:normal;font-variant-caps:normal;font-variant-numeric:normal;font-variant-east-asian:normal;display:inline;fill:#ffffff;fill-opacity:1;stroke:none;stroke-width:0.234148"
       x="11.008766"
       y="40.138924"
       id="text216"><tspan
         sodipodi:role="line"
         id="tspan214"
         x="11.008766"
         y="40.138924"
         style="font-style:normal;font-variant:normal;font-weight:900;font-stretch:normal;font-size:9.3659px;font-family:Lato;-inkscape-font-specification:'Lato, Heavy';font-variant-ligatures:normal;font-variant-caps:normal;font-variant-numeric:normal;font-variant-east-asian:normal;fill:#ffffff;stroke-width:0.234148">.social</tspan></text>
    <circle
       style="display:inline;fill:url(#linearGradient76);fill-opacity:1;fill-rule:evenodd;stroke-width:0.273733"
       id="circle218"
       cx="24"
       cy="24"
       r="24" />
    <text
       xml:space="preserve"
       style="font-style:normal;font-variant:normal;font-weight:900;font-stretch:normal;font-size:23.3093px;line-height:1.25;font-family:Lato;-inkscape-font-specification:'Lato, Heavy';font-variant-ligatures:normal;font-variant-caps:normal;font-variant-numeric:normal;font-variant-east-asian:normal;display:inline;fill:#ffffff;fill-opacity:1;stroke:none;stroke-width:0.582735"
       x="4.2318535"
       y="30.583668"
       id="text222"><tspan
         sodipodi:role="line"
         id="tspan220"
         x="4.2318535"
         y="30.583668"
         style="font-style:normal;font-variant:normal;font-weight:900;font-stretch:normal;font-size:23.3093px;font-family:Lato;-inkscape-font-specification:'Lato, Heavy';font-variant-ligatures:normal;font-variant-caps:normal;font-variant-numeric:normal;font-variant-east-asian:normal;fill:#ffffff;stroke-width:0.582735">499 </tspan></text>
    <text
       xml:space="preserve"
       style="font-style:normal;font-variant:normal;font-weight:900;font-stretch:normal;font-size:9.3659px;line-height:1.25;font-family:Lato;-inkscape-font-specification:'Lato, Heavy';font-variant-ligatures:normal;font-variant-caps:normal;font-variant-numeric:normal;font-variant-east-asian:normal;display:inline;fill:#ffffff;fill-opacity:1;stroke:none;stroke-width:0.234148"
       x="11.008766"
       y="40.138924"
       id="text226"><tspan
         sodipodi:role="line"
         id="tspan224"
         x="11.008766"
         y="40.138924"
         style="font-style:normal;font-variant:normal;font-weight:900;font-stretch:normal;font-size:9.3659px;font-family:Lato;-inkscape-font-specification:'Lato, Heavy';font-variant-ligatures:normal;font-variant-caps:normal;font-variant-numeric:normal;font-variant-east-asian:normal;fill:#ffffff;stroke-width:0.234148">.social</tspan></text>
  </g>
</svg>
